str[0] = " "
str[1] = "Wooden Door"
str[2] = "Chest"
str[3] = "Switch"
str[4] = "Exit"
str[5] = "Mural"
str[6] = "Ched Rhinn"
str[7] = "The chest is locked"
str[8] = ""
str[9] = ""


event 1
  110: GoTo  {jump = 0}

  0:  OnLoadMap  {}
  1:  ForPlayer  ("All")
  2:  Set  {"Eradicated", Value = 0}
end
