str[0] = " "
str[1] = "Door"
str[2] = "Leave Watchtower 6"
str[3] = "Chest"
str[4] = "Button"
str[5] = "Lever"
str[6] = "Vault"
str[7] = "Cabinet"
str[8] = "Switch"
str[9] = ""
str[10] = "Bookcase"
str[11] = ""
str[12] = ""
str[13] = ""
str[14] = "You Successfully disarm the trap"
str[15] = ""
str[16] = "Take a Drink"
str[17] = "Not Very Refreshing"
str[18] = "Refreshing"
str[19] = ""
str[20] = ""
str[21] = ""
str[22] = ""
str[23] = ""
str[24] = ""
str[25] = ""
str[26] = ""
str[27] = ""
str[28] = ""
str[29] = ""
str[30] = ""
str[31] = ""
str[32] = ""
str[33] = ""
str[34] = ""
str[35] = ""
str[36] = ""
str[37] = ""
str[38] = ""
str[39] = ""
str[40] = ""
str[41] = ""
str[42] = ""
str[43] = ""
str[44] = ""
str[45] = ""
str[46] = ""
str[47] = ""
str[48] = ""
str[49] = ""
str[50] = ""
str[51] = ""
str[52] = ""
str[53] = ""
str[54] = ""
str[55] = ""
str[56] = ""
str[57] = ""
str[58] = ""
str[59] = ""
str[60] = ""
str[61] = ""
str[62] = ""
str[63] = ""
str[64] = ""
str[65] = ""
str[66] = ""
str[67] = ""
str[68] = ""
str[69] = ""
str[70] = ""
str[71] = ""
str[72] = ""
str[73] = ""
str[74] = ""
str[75] = ""
str[76] = ""
str[77] = ""
str[78] = ""
str[79] = ""
str[80] = ""
str[81] = ""
str[82] = ""
str[83] = ""
str[84] = ""
str[85] = ""
str[86] = ""
str[87] = ""
str[88] = ""
str[89] = ""
str[90] = ""
str[91] = ""
str[92] = ""
str[93] = ""
str[94] = ""
str[95] = ""
str[96] = ""
str[97] = ""
str[98] = ""
str[99] = ""
str[100] = ""
str[101] = ""
str[102] = ""
str[103] = ""
str[104] = ""
str[105] = ""
str[106] = ""
str[107] = ""
str[108] = ""
str[109] = ""
str[110] = ""
str[111] = ""
str[112] = ""
str[113] = ""
str[114] = ""
str[115] = ""
str[116] = ""
str[117] = ""
str[118] = ""
str[119] = ""
str[120] = ""
str[121] = ""


event 1
  0:  OnLoadMap  {}
  1:  Cmp  {"QBits", Value = 20,   jump = 3}         -- Watchtower 6.  Weight in the appropriate box.  Important for Global event 47 (Spy promotion)
  2:  GoTo  {jump = 5}

  3:  SetDoorState  {Id = 13, State = 1}
  4:  SetDoorState  {Id = 12, State = 1}
  5:  SetMonGroupBit  {NPCGroup = 5, Bit = const.MonsterBits.Hostile, On = true}         -- "Generic Monster Group for Dungeons"
end

event 3
  0:  SetDoorState  {Id = 11, State = 0}
end

event 4
  0:  SetDoorState  {Id = 10, State = 0}
end

event 151
  0:  SetDoorState  {Id = 1, State = 2}         -- switch state
  1:  SetDoorState  {Id = 2, State = 2}         -- switch state
end

event 152
  0:  SetDoorState  {Id = 5, State = 0}
  1:  SetDoorState  {Id = 6, State = 0}
  2:  SetDoorState  {Id = 7, State = 0}
  3:  SetDoorState  {Id = 8, State = 0}
  4:  SetDoorState  {Id = 3, State = 2}         -- switch state
  5:  SetDoorState  {Id = 4, State = 2}         -- switch state
end

event 176
      Hint = str[3]  -- "Chest"
  0:  OpenChest  {Id = 1}
end

event 177
      Hint = str[3]  -- "Chest"
  0:  OpenChest  {Id = 2}
end

event 178
      Hint = str[3]  -- "Chest"
  0:  OpenChest  {Id = 3}
end

event 179
      Hint = str[3]  -- "Chest"
  0:  OpenChest  {Id = 4}
end

event 180
      Hint = str[3]  -- "Chest"
  0:  OpenChest  {Id = 5}
end

event 181
      Hint = str[3]  -- "Chest"
  0:  OpenChest  {Id = 6}
end

event 182
      Hint = str[3]  -- "Chest"
  0:  OpenChest  {Id = 7}
end

event 183
      Hint = str[3]  -- "Chest"
  0:  OpenChest  {Id = 8}
end

event 184
      Hint = str[3]  -- "Chest"
  0:  OpenChest  {Id = 9}
end

event 185
      Hint = str[3]  -- "Chest"
  0:  OpenChest  {Id = 10}
end

event 186
      Hint = str[3]  -- "Chest"
  0:  OpenChest  {Id = 11}
end

event 187
      Hint = str[3]  -- "Chest"
  0:  OpenChest  {Id = 12}
end

event 188
      Hint = str[3]  -- "Chest"
  0:  OpenChest  {Id = 13}
end

event 189
      Hint = str[3]  -- "Chest"
  0:  OpenChest  {Id = 14}
end

event 190
      Hint = str[3]  -- "Chest"
  0:  OpenChest  {Id = 15}
end

event 191
      Hint = str[3]  -- "Chest"
  0:  OpenChest  {Id = 16}
end

event 192
      Hint = str[3]  -- "Chest"
  0:  OpenChest  {Id = 17}
end

event 193
      Hint = str[3]  -- "Chest"
  0:  OpenChest  {Id = 18}
end

event 194
      Hint = str[3]  -- "Chest"
  0:  OpenChest  {Id = 19}
end

event 195
      Hint = str[3]  -- "Chest"
  0:  OpenChest  {Id = 0}
end

event 376
  0:  ForPlayer  ("All")
  1:  Set  {"QBits", Value = 20}         -- Watchtower 6.  Weight in the appropriate box.  Important for Global event 47 (Spy promotion)
  2:  SetDoorState  {Id = 13, State = 1}
  3:  SetDoorState  {Id = 12, State = 1}
end

event 451
  0:  RandomGoTo  {jumpA = 2, jumpB = 5, jumpC = 8, jumpD = 11, jumpE = 14, jumpF = 20}
  1:  Exit  {}

  2:  SetDoorState  {Id = 5, State = 2}         -- switch state
  3:  SetDoorState  {Id = 9, State = 2}         -- switch state
  4:  GoTo  {jump = 22}

  5:  SetDoorState  {Id = 6, State = 2}         -- switch state
  6:  SetDoorState  {Id = 9, State = 2}         -- switch state
  7:  GoTo  {jump = 22}

  8:  SetDoorState  {Id = 7, State = 2}         -- switch state
  9:  SetDoorState  {Id = 9, State = 2}         -- switch state
  10: GoTo  {jump = 22}

  11: SetDoorState  {Id = 8, State = 2}         -- switch state
  12: SetDoorState  {Id = 9, State = 2}         -- switch state
  13: GoTo  {jump = 22}

  14: SetDoorState  {Id = 5, State = 0}
  15: SetDoorState  {Id = 9, State = 2}         -- switch state
  16: SetDoorState  {Id = 6, State = 0}
  17: SetDoorState  {Id = 7, State = 0}
  18: SetDoorState  {Id = 8, State = 0}
  19: GoTo  {jump = 22}

  20: SetDoorState  {Id = 5, State = 1}
  21: SetDoorState  {Id = 9, State = 2}         -- switch state
  22: Set  {"MapVar1", Value = 1}
  23: RandomGoTo  {jumpA = 25, jumpB = 27, jumpC = 29, jumpD = 31, jumpE = 32, jumpF = 32}
  24: Exit  {}

  25: CastSpell  {Spell = 6, Mastery = const.GM, Skill = 10, FromX = -3584, FromY = 9984, FromZ = 2721, ToX = -376, ToY = 7228, ToZ = 2721}         -- "Fireball"
  26: Cmp  {"MapVar1", Value = 1,   jump = 35}
  27: CastSpell  {Spell = 6, Mastery = const.GM, Skill = 10, FromX = 2560, FromY = 4096, FromZ = 2721, ToX = -376, ToY = 7228, ToZ = 2721}         -- "Fireball"
  28: Cmp  {"MapVar1", Value = 1,   jump = 35}
  29: CastSpell  {Spell = 6, Mastery = const.GM, Skill = 10, FromX = 2816, FromY = 9984, FromZ = 2721, ToX = -376, ToY = 7228, ToZ = 2721}         -- "Fireball"
  30: Cmp  {"MapVar1", Value = 1,   jump = 35}
  31: CastSpell  {Spell = 6, Mastery = const.GM, Skill = 10, FromX = -3584, FromY = 4352, FromZ = 2721, ToX = -376, ToY = 7228, ToZ = 2721}         -- "Fireball"
  32: GoTo  {jump = 35}

  33: Set  {"MapVar1", Value = 0}
  34: RandomGoTo  {jumpA = 25, jumpB = 27, jumpC = 29, jumpD = 31, jumpE = 0, jumpF = 0}
  35: Exit  {}
end

event 452
      Hint = str[100]  -- ""
  0:  Cmp  {"MapVar4", Value = 1,   jump = 3}
  1:  SpeakNPC  {NPC = 274}         -- "Guard"
  2:  Set  {"MapVar4", Value = 1}
  3:  Exit  {}
end

event 453
      Hint = str[100]  -- ""
  0:  Cmp  {"MapVar4", Value = 2,   jump = 3}
  1:  SetMonGroupBit  {NPCGroup = 5, Bit = const.MonsterBits.Hostile, On = true}         -- "Generic Monster Group for Dungeons"
  2:  Set  {"MapVar4", Value = 2}
  3:  Exit  {}
end

event 454
      Hint = str[100]  -- ""
  0:  Set  {"MapVar4", Value = 0}
end

event 455
      Hint = str[100]  -- ""

  0:  OnLoadMap  {}
  1:  Cmp  {"MapVar4", Value = 2,   jump = 5}
  2:  Cmp  {"QBits", Value = 100,   jump = 4}         -- Chose the path of Dark
  3:  Exit  {}

  4:  Set  {"MapVar4", Value = 2}
  5:  SetMonGroupBit  {NPCGroup = 5, Bit = const.MonsterBits.Hostile, On = true}         -- "Generic Monster Group for Dungeons"
end

event 501
      Hint = str[2]  -- "Leave Watchtower 6"
  0:  MoveToMap  {X = -16449, Y = -18181, Z = 6401, Direction = 1664, LookAngle = 0, SpeedZ = 0, HouseId = 0, Icon = 8, Name = "Out05.odm"}
end

event 502
      Hint = str[2]  -- "Leave Watchtower 6"
  0:  MoveToMap  {X = -20388, Y = -17503, Z = 4193, Direction = 1828, LookAngle = 0, SpeedZ = 0, HouseId = 0, Icon = 8, Name = "out05.odm"}
end
