str[0] = " "
str[1] = "Door"
str[2] = "Leave the Grand Temple of the Moon"
str[3] = "Chest"
str[4] = "Button"
str[5] = "Lever"
str[6] = "Vault"
str[7] = "Cabinet"
str[8] = "Switch"
str[9] = "Drawer"
str[10] = "Bookcase"
str[11] = "Altar"
str[12] = ""
str[13] = ""
str[14] = "You Successfully disarm the trap"
str[15] = "You have Purified the Altar"
str[16] = "Take a Drink"
str[17] = "Not Very Refreshing"
str[18] = "Refreshing"
str[19] = ""
str[20] = ""
str[21] = ""
str[22] = ""
str[23] = ""
str[24] = ""
str[25] = ""
str[26] = ""
str[27] = ""
str[28] = ""
str[29] = ""
str[30] = ""
str[31] = ""
str[32] = ""
str[33] = ""
str[34] = ""
str[35] = ""
str[36] = ""
str[37] = ""
str[38] = ""
str[39] = ""
str[40] = ""
str[41] = ""
str[42] = ""
str[43] = ""
str[44] = ""
str[45] = ""
str[46] = ""
str[47] = ""
str[48] = ""
str[49] = ""
str[50] = ""
str[51] = ""
str[52] = ""
str[53] = ""
str[54] = ""
str[55] = ""
str[56] = ""
str[57] = ""
str[58] = ""
str[59] = ""
str[60] = ""
str[61] = ""
str[62] = ""
str[63] = ""
str[64] = ""
str[65] = ""
str[66] = ""
str[67] = ""
str[68] = ""
str[69] = ""
str[70] = ""
str[71] = ""
str[72] = ""
str[73] = ""
str[74] = ""
str[75] = ""
str[76] = ""
str[77] = ""
str[78] = ""
str[79] = ""
str[80] = ""
str[81] = ""
str[82] = ""
str[83] = ""
str[84] = ""
str[85] = ""
str[86] = ""
str[87] = ""
str[88] = ""
str[89] = ""
str[90] = ""
str[91] = ""
str[92] = ""
str[93] = ""
str[94] = ""
str[95] = ""
str[96] = ""
str[97] = ""
str[98] = ""
str[99] = ""
str[100] = ""
str[101] = ""
str[102] = ""
str[103] = ""
str[104] = ""
str[105] = ""
str[106] = ""
str[107] = ""
str[108] = ""
str[109] = ""
str[110] = ""
str[111] = ""
str[112] = ""
str[113] = ""
str[114] = ""
str[115] = ""
str[116] = ""
str[117] = ""
str[118] = ""
str[119] = ""
str[120] = ""
str[121] = ""


event 1
  0:  OnLoadMap  {}
  1:  Set  {"MapVar0", Value = 1}
  2:  SetMonGroupBit  {NPCGroup = 5, Bit = const.MonsterBits.Hostile, On = true}         -- "Generic Monster Group for Dungeons"
end

event 2
  0:  OnLeaveMap  {}
  1:  ForPlayer  ("All")
  2:  Cmp  {"Inventory", Value = 341,   jump = 4}         -- "Telekinesis"
  3:  Exit  {}

  4:  Subtract  {"Inventory", Value = 341}         -- "Telekinesis"
  5:  GoTo  {jump = 2}
end

event 3
  0:  SetDoorState  {Id = 6, State = 0}
end

event 4
      Hint = str[1]  -- "Door"
  0:  SetDoorState  {Id = 3, State = 0}
end

event 5
      Hint = str[1]  -- "Door"
  0:  SetDoorState  {Id = 7, State = 0}
end

event 6
  0:  Cmp  {"MapVar0", Value = 2,   jump = 3}
  1:  SetDoorState  {Id = 8, State = 0}
  2:  SetDoorState  {Id = 9, State = 0}
  3:  Exit  {}
end

event 7
      Hint = str[1]  -- "Door"
  0:  SetDoorState  {Id = 10, State = 0}
  1:  SetDoorState  {Id = 11, State = 0}
end

event 8
  0:  SetDoorState  {Id = 8, State = 1}
  1:  SetDoorState  {Id = 9, State = 1}
end

event 9
      Hint = str[1]  -- "Door"
  0:  SetDoorState  {Id = 12, State = 0}
  1:  SetDoorState  {Id = 13, State = 0}
end

event 10
  0:  SetDoorState  {Id = 14, State = 0}
end

event 11
      Hint = str[8]  -- "Switch"
  0:  SetDoorState  {Id = 15, State = 1}
  1:  SetDoorState  {Id = 28, State = 0}
end

event 12
      Hint = str[1]  -- "Door"
  0:  SetDoorState  {Id = 17, State = 0}
end

event 13
      Hint = str[1]  -- "Door"
  0:  SetDoorState  {Id = 18, State = 0}
  1:  SetDoorState  {Id = 19, State = 0}
end

event 14
      Hint = str[1]  -- "Door"
  0:  SetDoorState  {Id = 20, State = 0}
  1:  SetDoorState  {Id = 21, State = 0}
end

event 15
      Hint = str[1]  -- "Door"
  0:  SetDoorState  {Id = 22, State = 0}
  1:  SetDoorState  {Id = 23, State = 0}
end

event 16
  0:  SetDoorState  {Id = 24, State = 0}
  1:  SetDoorState  {Id = 25, State = 0}
end

event 17
      Hint = str[9]  -- "Drawer"
  0:  SetDoorState  {Id = 26, State = 0}
  1:  OpenChest  {Id = 6}
end

event 18
      Hint = str[1]  -- "Door"
  0:  SetDoorState  {Id = 27, State = 0}
end

event 19
      Hint = str[4]  -- "Button"
  0:  SetDoorState  {Id = 28, State = 1}
  1:  SetDoorState  {Id = 15, State = 0}
end

event 20
  0:  Add  {"Inventory", Value = 341}         -- "Telekinesis"
  1:  SetDoorState  {Id = 29, State = 0}
end

event 21
      Hint = str[1]  -- "Door"
  0:  SetDoorState  {Id = 31, State = 0}
end

event 22
  0:  SetDoorState  {Id = 4, State = 0}
  1:  SetDoorState  {Id = 5, State = 0}
end

event 23
  0:  SetDoorState  {Id = 1, State = 0}
  1:  SetDoorState  {Id = 2, State = 0}
end

event 24
      Hint = str[1]  -- "Door"
  0:  SetDoorState  {Id = 51, State = 0}
  1:  SetDoorState  {Id = 50, State = 0}
end

event 25
  0:  SetDoorState  {Id = 52, State = 0}
end

event 176
      Hint = str[3]  -- "Chest"
  0:  OpenChest  {Id = 1}
end

event 177
      Hint = str[7]  -- "Cabinet"
  0:  OpenChest  {Id = 2}
end

event 178
      Hint = str[7]  -- "Cabinet"
  0:  OpenChest  {Id = 3}
end

event 179
      Hint = str[7]  -- "Cabinet"
  0:  OpenChest  {Id = 4}
end

event 180
      Hint = str[3]  -- "Chest"
  0:  OpenChest  {Id = 5}
end

event 182
      Hint = str[3]  -- "Chest"
  0:  OpenChest  {Id = 7}
end

event 183
      Hint = str[3]  -- "Chest"
  0:  OpenChest  {Id = 8}
end

event 184
      Hint = str[3]  -- "Chest"
  0:  OpenChest  {Id = 9}
end

event 185
      Hint = str[3]  -- "Chest"
  0:  OpenChest  {Id = 10}
end

event 186
      Hint = str[3]  -- "Chest"
  0:  OpenChest  {Id = 11}
end

event 187
      Hint = str[3]  -- "Chest"
  0:  OpenChest  {Id = 12}
end

event 188
      Hint = str[3]  -- "Chest"
  0:  OpenChest  {Id = 13}
end

event 189
      Hint = str[3]  -- "Chest"
  0:  OpenChest  {Id = 14}
end

event 190
      Hint = str[3]  -- "Chest"
  0:  OpenChest  {Id = 15}
end

event 191
      Hint = str[3]  -- "Chest"
  0:  OpenChest  {Id = 16}
end

event 192
      Hint = str[3]  -- "Chest"
  0:  OpenChest  {Id = 17}
end

event 193
      Hint = str[3]  -- "Chest"
  0:  OpenChest  {Id = 18}
end

event 194
      Hint = str[3]  -- "Chest"
  0:  OpenChest  {Id = 19}
end

event 195
      Hint = str[3]  -- "Chest"
  0:  OpenChest  {Id = 0}
end

event 196
      Hint = str[10]  -- "Bookcase"
  0:  Cmp  {"MapVar49", Value = 1,   jump = 18}
  1:  RandomGoTo  {jumpA = 2, jumpB = 2, jumpC = 2, jumpD = 4, jumpE = 15, jumpF = 18}
  2:  GiveItem  {Strength = 5, Type = const.ItemType.Scroll_, Id = 0}
  3:  GoTo  {jump = 14}

  4:  RandomGoTo  {jumpA = 5, jumpB = 7, jumpC = 9, jumpD = 11, jumpE = 13, jumpF = 14}
  5:  Add  {"Inventory", Value = 401}         -- "Fire Bolt"
  6:  GoTo  {jump = 14}

  7:  Add  {"Inventory", Value = 412}         -- "Feather Fall"
  8:  GoTo  {jump = 14}

  9:  Add  {"Inventory", Value = 414}         -- "Sparks"
  10: GoTo  {jump = 14}

  11: Add  {"Inventory", Value = 479}         -- "Dispel Magic"
  12: GoTo  {jump = 14}

  13: Add  {"Inventory", Value = 467}         -- "Heal"
  14: RandomGoTo  {jumpA = 15, jumpB = 15, jumpC = 15, jumpD = 15, jumpE = 18, jumpF = 18}
  15: Add  {"MapVar49", Value = 1}
  16: GoTo  {jump = 18}

  17: StatusText  {Str = 19}         -- ""
  18: Exit  {}
end

event 197
      Hint = str[10]  -- "Bookcase"
  0:  StatusText  {Str = 19}         -- ""
end

event 376
      Hint = str[11]  -- "Altar"
  0:  Cmp  {"QBits", Value = 62,   jump = 2}         -- Purified the Altar of Evil.  Priest of Light promo quest.
  1:  Cmp  {"QBits", Value = 42,   jump = 3}         -- "Purify the Altar of Evil in the Temple of the Moon on Evenmorn Isle then return to Rebecca Devine in Celeste."
  2:  Exit  {}

  3:  SetTexture  {Facet = 20, Name = "T2BEDSHT"}
  4:  ForPlayer  ("All")
  5:  Set  {"QBits", Value = 62}         -- Purified the Altar of Evil.  Priest of Light promo quest.
  6:  Add  {"QBits", Value = 245}         -- "Congratulations"
  7:  Subtract  {"QBits", Value = 245}         -- "Congratulations"
  8:  StatusText  {Str = 15}         -- "You have Purified the Altar"
end

event 451
  0:  Cmp  {"MapVar0", Value = 2,   jump = 5}
  1:  Set  {"MapVar0", Value = 2}
  2:  SetFacetBit  {Id = 1, Bit = const.FacetBits.Untouchable, On = true}
  3:  SetDoorState  {Id = 30, State = 0}
  4:  Exit  {}

  5:  Set  {"MapVar0", Value = 1}
  6:  SetFacetBit  {Id = 1, Bit = const.FacetBits.Untouchable, On = false}
  7:  SetDoorState  {Id = 30, State = 1}
end

event 501
      Hint = str[2]  -- "Leave the Grand Temple of the Moon"
  0:  ForPlayer  ("All")
  1:  Subtract  {"Inventory", Value = 341}         -- "Telekinesis"
  2:  MoveToMap  {X = 8472, Y = -3176, Z = 32, Direction = 1408, LookAngle = 0, SpeedZ = 0, HouseId = 0, Icon = 8, Name = "Out09.odm"}
end
